[Thread-0] 13 Jun 2016 17:33:25,235  INFO JavaAgent - ####################################################################################
[Thread-0] 13 Jun 2016 17:33:25,235  INFO JavaAgent - Java Agent Directory [/home/swfcfe/Services/instrumentationconsole/BookStore/ver4.1.7.1]
[Thread-0] 13 Jun 2016 17:33:25,235  INFO JavaAgent - Java Agent AppAgent directory [/home/swfcfe/Services/instrumentationconsole/BookStore/ver4.1.7.1]
[Thread-0] 13 Jun 2016 17:33:25,235  INFO JavaAgent - Using Java Agent Version [Server Agent v4.1.7.1 GA #9949 ra4a2721d52322207b626e8d4c88855c846741b3d 18-4.1.7.next-build]
[Thread-0] 13 Jun 2016 17:33:25,235  INFO JavaAgent - All agent classes have been pre-loaded
[Thread-0] 13 Jun 2016 17:33:25,235  INFO JavaAgent - Using ASM v5.0.1
[Thread-0] 13 Jun 2016 17:33:25,236  INFO AgentKernel - Starting Java Agent at Mon Jun 13 17:33:25 CEST 2016 ...
[Thread-0] 13 Jun 2016 17:33:25,274  INFO XMLConfigManager - Orchestration is disabled - disabling virtualization resolvers by default.
[Thread-0] 13 Jun 2016 17:33:25,282  INFO XMLConfigManager - Default Host Identifier Resolver using host name for unique host identifier [dsibss.cosmos.es.ftgroup]
[Thread-0] 13 Jun 2016 17:33:25,284  INFO XMLConfigManager - Default IP Address Resolver found IP addresses [[192.168.122.1, fe80:0:0:0:223:24ff:fe74:9033%eno1, 10.113.70.44]]
[Thread-0] 13 Jun 2016 17:33:25,289  INFO XMLConfigManager - Full Agent Registration Info Resolver using selfService [true]
[Thread-0] 13 Jun 2016 17:33:25,293  INFO XMLConfigManager - Full Agent Registration Info Resolver using selfService [true]
[Thread-0] 13 Jun 2016 17:33:25,293  INFO XMLConfigManager - Full Agent Registration Info Resolver using application name [OrangeLab]
[Thread-0] 13 Jun 2016 17:33:25,293  INFO XMLConfigManager - Full Agent Registration Info Resolver using tier name [BookStore]
[Thread-0] 13 Jun 2016 17:33:25,294  INFO XMLConfigManager - Full Agent Registration Info Resolver using node name [BookStore-dsibss-10010]
[Thread-0] 13 Jun 2016 17:33:25,298  INFO XMLConfigManager - XML Controller Info Resolver found controller host [orange2522.saas.appdynamics.com]
[Thread-0] 13 Jun 2016 17:33:25,298  INFO XMLConfigManager - XML Controller Info Resolver found controller port [443]
[Thread-0] 13 Jun 2016 17:33:25,303  INFO XMLConfigManager - XML Controller Info Resolver found controller host [orange2522.saas.appdynamics.com]
[Thread-0] 13 Jun 2016 17:33:25,303  INFO XMLConfigManager - XML Controller Info Resolver found controller port [443]
[Thread-0] 13 Jun 2016 17:33:25,308  INFO XMLConfigManager - XML Agent Account Info Resolver using account name [Orange2522]
[Thread-0] 13 Jun 2016 17:33:25,308  INFO XMLConfigManager - XML Agent Account Info Resolver using account access key [nl7f8ytz3ifs]
[Thread-0] 13 Jun 2016 17:33:25,309  INFO XMLConfigManager - Configuration Channel is using ControllerInfo:: host:[orange2522.saas.appdynamics.com] port:[443] sslEnabled:[true] keystoreFile:[DEFAULT:cacerts.jks] validation:[UNSPECIFIED]
[Thread-0] 13 Jun 2016 17:33:25,310  INFO XMLConfigManager - Keystore file cacerts.jks was not found
[Thread-0] 13 Jun 2016 17:33:25,327  INFO XMLConfigManager - Trying secure protocol:TLSv1.2
[Thread-0] 13 Jun 2016 17:33:25,609  INFO AgentConfigWatchdog - Agent overwrite set to false
[Thread-0] 13 Jun 2016 17:33:25,611  INFO AgentConfigWatchdog - Parsed 2 filters from <sensitive-data-filters> section
[Thread-0] 13 Jun 2016 17:33:25,613  INFO AgentConfigWatchdog - Service properties for TransactionMonitoringService=[{config-file-path=transactions.xml}]
[Thread-0] 13 Jun 2016 17:33:25,613  INFO AgentConfigWatchdog - Service properties for JMXService=[{jmx-gc-minorCollectionBean=, jmx-server-metrics-update-interval-in-seconds=60, jmx-gc-majorCollectionBean=}]
[Thread-0] 13 Jun 2016 17:33:25,613  INFO AgentConfigWatchdog - Service properties for ObjectMonitoringService=[{enable-collection-monitoring=false, minimum-age-for-evaluation-in-minutes=30, enable-object-size-monitoring=false, minimum-size-for-evaluation-in-mb=5, disable-collection-capture=false, enable-instance-monitoring=false, collection-capture-period-in-minutes=30}]
[Thread-0] 13 Jun 2016 17:33:25,613  INFO AgentConfigWatchdog - Service properties for AgentDiagnosticsService=[{enable-thread-dump=false, dump-all-threads=true, enable-shutdown-hook=false, thread-dump-logger=log4j, thread-dump-interval=300}]
[Thread-0] 13 Jun 2016 17:33:25,613  INFO AgentConfigWatchdog - Service properties for DynamicServiceManager=[{external-service-directory=external-services}]
[Thread-0] 13 Jun 2016 17:33:25,626  INFO XMLConfigManager - Node will not be marked as historical at shutdown
[Thread-0] 13 Jun 2016 17:33:25,627  INFO AgentKernel - JVM Runtime: 
	java.home=/usr/lib/jvm/java-1.8.0-openjdk-1.8.0.77-0.b03.el7_2.x86_64/jre
	java.vm.vendor=Oracle Corporation
	java.vm.name=OpenJDK 64-Bit Server VM
	java.runtime.version=1.8.0_77-b03
	java.io.tmpdir=/tmp
	user.language=en
	user.country=GB
	user.variant=
	Default locale=en_GB
[Thread-0] 13 Jun 2016 17:33:25,627  INFO AgentKernel - OS Runtime: 
	os.name=Linux
	os.arch=amd64
	os.version=3.10.0-327.13.1.el7.x86_64
	user.name=swfcfe
	user.home=/home/swfcfe
	user.dir=/home/swfcfe/Services/instrumentationconsole/BookStore
[Thread-0] 13 Jun 2016 17:33:25,628  INFO AgentKernel - JVM Args : -Dspring.config.location=application-10010.yml | -Xms32m | -Xmx256m | -javaagent:/home/swfcfe/Services/instrumentationconsole/BookStore/ver4.1.7.1/javaagent.jar | 
[Thread-0] 13 Jun 2016 17:33:25,628  INFO AgentKernel - JVM Runtime Name: 19450@dsibss.cosmos.es.ftgroup
[Thread-0] 13 Jun 2016 17:33:25,628  INFO AgentKernel - JVM PID: 19450
[Thread-0] 13 Jun 2016 17:33:25,628  INFO AgentKernel - Running obfuscated agent
[Thread-0] 13 Jun 2016 17:33:25,629  INFO AgentKernel - No debugger attached
[Thread-0] 13 Jun 2016 17:33:25,638  INFO MetricHandler - Metric Service is : [enabled].
[Thread-0] 13 Jun 2016 17:33:25,655  INFO LifeCycleManager - Starting service [JMXService]
[Thread-0] 13 Jun 2016 17:33:25,663  INFO JMXService - ###### Using config from controller for JMX operations #########
[Thread-0] 13 Jun 2016 17:33:25,666  INFO ServerMBeanManager - Initialized MBean Finder with delay=120 secs
[Thread-0] 13 Jun 2016 17:33:25,674  INFO MemoryMetricGenerator - Identified minor collection bean :PS Scavenge
[Thread-0] 13 Jun 2016 17:33:25,674  INFO MemoryMetricGenerator - Identified major collection bean :PS MarkSweep
[Thread-0] 13 Jun 2016 17:33:25,675  INFO MemoryMetricGenerator - Initialized Minor Collection GC metrics
[Thread-0] 13 Jun 2016 17:33:25,675  INFO MemoryMetricGenerator - Initialized Major Collection GC metrics
[Thread-0] 13 Jun 2016 17:33:25,675  INFO MemoryMetricGenerator - Initialized Ovearll GC metrics
[Thread-0] 13 Jun 2016 17:33:25,676  INFO MemoryMetricGenerator - Initialized Memory Pool MX Beans [Code Cache, Metaspace, Compressed Class Space, PS Eden Space, PS Survivor Space, PS Old Gen]
[Thread-0] 13 Jun 2016 17:33:25,676  INFO JVMMetricReporter - Number of processors 4
[Thread-0] 13 Jun 2016 17:33:25,677  INFO JMXService - JVM JMX Metric collection initialized with update interval [60] seconds
[Thread-0] 13 Jun 2016 17:33:25,678  INFO HeapShortageMonitor - HeapStorageMonitor is now active
[Thread-0] 13 Jun 2016 17:33:25,679  INFO LifeCycleManager - Started service [JMXService]
[Thread-0] 13 Jun 2016 17:33:25,679  INFO LifeCycleManager - Starting service [Agent16Service]
[Thread-0] 13 Jun 2016 17:33:25,681  INFO LifeCycleManager - Started service [Agent16Service]
[Thread-0] 13 Jun 2016 17:33:25,681  INFO LifeCycleManager - Starting service [DynamicServiceManager]
[Thread-0] 13 Jun 2016 17:33:25,683  INFO DynamicServiceManager - Scheduling DynamicServiceManager at interval of 30 seconds
[Thread-0] 13 Jun 2016 17:33:25,683  INFO LifeCycleManager - Started service [DynamicServiceManager]
[Thread-0] 13 Jun 2016 17:33:25,683  INFO LifeCycleManager - Starting service [BCIEngine]
[Thread-0] 13 Jun 2016 17:33:25,697  INFO ClassMemoryLimitTracker - Class Memory limit check before retransform  is enabled
[Thread-0] 13 Jun 2016 17:33:25,697  INFO Java16AgentService - Class retransformation supported in current JVM version
[Thread-0] 13 Jun 2016 17:33:25,700  INFO InstrumentationHandler - Registered class file transformer for re-transformation
[Thread-0] 13 Jun 2016 17:33:25,702  INFO BCIEngineService - Class transformations will take place in a background thread
[Thread-0] 13 Jun 2016 17:33:25,703  INFO BCIEngineService - BCI Early Rule Appliers are bypassed because retransformation is supported
[Thread-0] 13 Jun 2016 17:33:25,703  INFO LifeCycleManager - Started service [BCIEngine]
[Thread-0] 13 Jun 2016 17:33:25,704  INFO LifeCycleManager - Starting service [SnapshotService]
[Thread-0] 13 Jun 2016 17:33:25,724  INFO TransactionSnapshotService - Agent object monitoring is disabled
[Thread-0] 13 Jun 2016 17:33:25,725  INFO TransactionSnapshotService - Coalesced Call-Stack Sampling is: enabled
[Thread-0] 13 Jun 2016 17:33:25,725  INFO TransactionSnapshotService - CallStackSampler TryLock bounds in Micro Sec: 500
[Thread-0] 13 Jun 2016 17:33:25,735  INFO CallGraphConfigHandler - Call Graph Config Changed  callgraph-granularity-in-ms  Value -null
[Thread-0] 13 Jun 2016 17:33:25,735  INFO CallGraphConfigHandler - Call Graph Config Changed  show-packages  Value -null
[Thread-0] 13 Jun 2016 17:33:25,736  INFO CallGraphFilteringConfig - Setting Callgraph package LOCAL always show []
[Thread-0] 13 Jun 2016 17:33:25,736  INFO CallGraphConfigHandler - Call Graph Config Changed  dont-show-packages  Value -null
[Thread-0] 13 Jun 2016 17:33:25,736  INFO CallGraphFilteringConfig - Setting Callgraph package LOCAL excludes []
[Thread-0] 13 Jun 2016 17:33:25,736  INFO CallGraphConfigHandler - Call Graph Config Changed  hotspot-granularity-in-ms  Value -null
[Thread-0] 13 Jun 2016 17:33:25,737  INFO RequestSegmentDataReporter - Request Segment Data reporter setup to report at interval [10000]
[Thread-0] 13 Jun 2016 17:33:25,739  INFO ApplicationStartupPolicy - Startup policy false
[Thread-0] 13 Jun 2016 17:33:25,756  INFO LifeCycleManager - Started service [SnapshotService]
[Thread-0] 13 Jun 2016 17:33:25,756  INFO LifeCycleManager - Starting service [TransactionMonitoringService]
[Thread-0] 13 Jun 2016 17:33:25,847  INFO SlowAndStallRequestMonitor - Stall Request checker setup
[Thread-0] 13 Jun 2016 17:33:25,847  INFO SlowAndStallRequestMonitor - Slow Request checker setup to check for requests slower than 300 ms, at interval 300 ms.
[Thread-0] 13 Jun 2016 17:33:25,848  INFO Java16DeadlockDetector - Deadlock Detector is scheduled to run every [300] seconds.
[Thread-0] 13 Jun 2016 17:33:25,870  INFO LoggerMessageProcessor - LoggerMessageProcessor is scheduled to run: com.singularity.ee.util.javaspecific.scheduler.o@76b3ce2a
[Thread-0] 13 Jun 2016 17:33:25,873  INFO AgentErrorProcessor - AgentErrorProcessor is scheduled to run: com.singularity.ee.util.javaspecific.scheduler.o@2fd1db35
[Thread-0] 13 Jun 2016 17:33:25,877  INFO ErrorRegistry - Error Registry initialized
[Thread-0] 13 Jun 2016 17:33:25,881  INFO AsyncCorrelationADDRepository - Started ADD registration thread to run every [10] seconds
[Thread-0] 13 Jun 2016 17:33:25,882  INFO AsyncCorrelationADDRepository - Max ADD registrations allowed [500]
[Thread-0] 13 Jun 2016 17:33:25,882  INFO AsyncCorrelationADDRepository - Reporting ADD registration failures every [5] minutes
[Thread-0] 13 Jun 2016 17:33:25,886  INFO JVMThreadCPUTimeCalculator - BT CPU Monitoring will stay enabled. Time taken to calculate Thread CPU Time for [1000] iterations is [2 ms] which is within the allowed budget of [10 ms]
[Thread-0] 13 Jun 2016 17:33:25,887  INFO ServiceEndPointADDRegistrar - Starting ADD Registrar with registration period [10] secs
[Thread-0] 13 Jun 2016 17:33:25,918  INFO AnnotationPropertyListenerManager - Will propagate value of property [group-unmonitoried-backends] to method [public void com.singularity.ee.agent.appagent.services.transactionmonitor.common.TransactionMonitor.g(boolean)] in class class com.singularity.ee.agent.appagent.services.transactionmonitor.common.TransactionMonitor 1
[Thread-0] 13 Jun 2016 17:33:25,918  INFO TransactionMonitoringService - TMS.Configure >> setting [use-new-async-correlation] to true
[Thread-0] 13 Jun 2016 17:33:25,918  INFO TransactionMonitoringService - TMS.Configure >> [use-flat-thread-chain-model] to true
[Thread-0] 13 Jun 2016 17:33:25,918  INFO TransactionMonitoringService - TMS.Configure >> [bSyncMetricAggregator] to true
[Thread-0] 13 Jun 2016 17:33:25,918  INFO TransactionMonitoringService - TMS.Configure >> [asyncAllMetrics] to null
[Thread-0] 13 Jun 2016 17:33:25,918  INFO TransactionMonitoringService - TMS.Configure >> [useNewEJB3NamingRule] to false
[Thread-0] 13 Jun 2016 17:33:25,918  INFO TransactionMonitoringService - TMS.Configure >> [disableSocketCollection] to false
[Thread-0] 13 Jun 2016 17:33:25,918  INFO TransactionMonitoringService - TMS.Configure >> [devModeSuspendCPM] to 500
[Thread-0] 13 Jun 2016 17:33:25,918  INFO TransactionMonitoringService - TMS.Configure >> [jdbcLRUCacheSize] to 50
[Thread-0] 13 Jun 2016 17:33:25,918  INFO TransactionMonitoringService - TMS.Configure >> [support-cross-app-correlation] to true
[Thread-0] 13 Jun 2016 17:33:25,918  INFO TransactionMonitoringService - TMS.Configure >> ["+TransactionMonitorProperty.CHECK_BT_EXCLUDES_EARLY+"] to false
[Thread-0] 13 Jun 2016 17:33:25,918  INFO TransactionMonitoringService - TMS.Configure >> [maxAsyncTransformedClasses] to 100
[Thread-0] 13 Jun 2016 17:33:25,918  INFO TransactionMonitoringService - TMS.Configure >> [maxAsyncTransformedClassesByPackage] to 50
[Thread-0] 13 Jun 2016 17:33:25,918  INFO TransactionMonitoringService - TMS.Configure >> [maxEJBTransformedClasses] to 500
[Thread-0] 13 Jun 2016 17:33:25,919  INFO TransactionMonitoringService - TMS.Configure >> [maxEJBTransformedClassesByPackage] to 200
[Thread-0] 13 Jun 2016 17:33:25,919  INFO TransactionMonitoringService - TMS.Configure >> [maxTransformationsPerInterceptor] to 500
[Thread-0] 13 Jun 2016 17:33:25,919  INFO TransactionMonitoringService - TMS.Configure >> ["+TransactionMonitorProperty.disableInfoProviderMBean+"] to false
[Thread-0] 13 Jun 2016 17:33:25,919  INFO TransactionMonitoringService - TMS.Configure >> ["+TransactionMonitorProperty.infoProviderDetailMode+"] to false
[Thread-0] 13 Jun 2016 17:33:25,926  INFO TransactionMonitoringService - Initialized [NEW] TransactionDelegate
[Thread-0] 13 Jun 2016 17:33:25,934  INFO AnnotationPropertyListenerManager - Will propagate value of property [enable-cassandra-backend-ip-naming] to method [public void com.singularity.ee.agent.appagent.services.transactionmonitor.yf.a(java.lang.String)] in class class com.singularity.ee.agent.appagent.services.transactionmonitor.yf 1
[Thread-0] 13 Jun 2016 17:33:25,937  INFO WebObjectsRuleApplier - Setting up new scheme for web objects transaction detection: applicationName:requestHandlerKey,applicationURLPrefix,uri
[Thread-0] 13 Jun 2016 17:33:25,942  INFO JaxRsConfiguration - Property config-file-path, Value transactions.xml
[Thread-0] 13 Jun 2016 17:33:25,942  INFO JaxRsConfiguration - Property webobjects-uri-construction-scheme, Value applicationName:requestHandlerKey,applicationURLPrefix,uri
[Thread-0] 13 Jun 2016 17:33:25,945  INFO JDBCRuleApplier - Enabled JDBC Driver support for 13 drivers
[Thread-0] 13 Jun 2016 17:33:25,945  INFO JDBCRuleApplier - DBCam integration enabled=false
[Thread-0] 13 Jun 2016 17:33:25,946  INFO AnnotationPropertyListenerManager - Will propagate value of property [oracle-clientid-index] to method [public void com.singularity.ee.agent.appagent.services.transactionmonitor.jdbc.ec.a(int)] in class class com.singularity.ee.agent.appagent.services.transactionmonitor.jdbc.ec 1
[Thread-0] 13 Jun 2016 17:33:25,946  INFO JDBCConfiguration - Applying property config-file-path, val transactions.xml
[Thread-0] 13 Jun 2016 17:33:25,946  INFO JDBCConfiguration - Applying property webobjects-uri-construction-scheme, val applicationName:requestHandlerKey,applicationURLPrefix,uri
[Thread-0] 13 Jun 2016 17:33:25,946  INFO SocketRuleApplier - BCI disabled for Socket stats collection
[Thread-0] 13 Jun 2016 17:33:25,970  INFO HotspotClock - Started hotspot clock
[Thread-0] 13 Jun 2016 17:33:25,973  INFO LifeCycleManager - Started service [TransactionMonitoringService]
[Thread-0] 13 Jun 2016 17:33:25,974  INFO LifeCycleManager - Starting service [ObjectMonitoringService]
[Thread-0] 13 Jun 2016 17:33:26,018  INFO ObjectMonitoringService - ObjectMonitoringService property enable-collection-monitoring changed to false
[Thread-0] 13 Jun 2016 17:33:26,018  INFO ObjectMonitoringService - ObjectMonitoringService property minimum-age-for-evaluation-in-minutes changed to 30
[Thread-0] 13 Jun 2016 17:33:26,018  INFO ObjectMonitoringService - ObjectMonitoringService property enable-object-size-monitoring changed to false
[Thread-0] 13 Jun 2016 17:33:26,025  INFO ObjectMonitoringService - ObjectMonitoringService property minimum-size-for-evaluation-in-mb changed to 5
[Thread-0] 13 Jun 2016 17:33:26,026  INFO ObjectMonitoringService - ObjectMonitoringService property disable-collection-capture changed to false
[Thread-0] 13 Jun 2016 17:33:26,026  INFO ObjectMonitoringService - ObjectMonitoringService property enable-instance-monitoring changed to false
[Thread-0] 13 Jun 2016 17:33:26,026  INFO ObjectMonitoringService - ObjectMonitoringService property collection-capture-period-in-minutes changed to 30
[Thread-0] 13 Jun 2016 17:33:26,026  INFO LifeCycleManager - Started service [ObjectMonitoringService]
[Thread-0] 13 Jun 2016 17:33:26,026  INFO LifeCycleManager - Starting service [AgentDiagnosticsService]
[Thread-0] 13 Jun 2016 17:33:26,031  INFO AgentDiagnosticConfig - Setting Memory Monitor Enabled false
[Thread-0] 13 Jun 2016 17:33:26,032  INFO AgentDiagnosticConfig - Memory Monitor max stack depth set to 500000
[Thread-0] 13 Jun 2016 17:33:26,032  INFO AgentDiagnosticConfig - Memory Monitor total objects set to 500000
[Thread-0] 13 Jun 2016 17:33:26,032  INFO MemoryMonitor - Updated monitor class names []. Removed all tracked method objects.
[Thread-0] 13 Jun 2016 17:33:26,033  INFO AgentDiagnosticConfig - Setting Thread Dump Enabled false
[Thread-0] 13 Jun 2016 17:33:26,033  INFO AgentDiagnosticsService - Seeting up Thread dump logger to Log4j based logger context com.singularity.diagnostics.ThreadDumpLogger
[Thread-0] 13 Jun 2016 17:33:26,033  INFO ThreadDumpLogger - #############################################################
[Thread-0] 13 Jun 2016 17:33:26,033  INFO ThreadDumpLogger - Agent Diagnostics Logs at Mon Jun 13 17:33:26 CEST 2016
[Thread-0] 13 Jun 2016 17:33:26,033  INFO ThreadDumpLogger - #############################################################
[Thread-0] 13 Jun 2016 17:33:26,033  INFO AgentDiagnosticConfig - Setting Shutdown hook Enabled false
[Thread-0] 13 Jun 2016 17:33:26,033  INFO AgentDiagnosticsService - JVM Shutdown hook is disabled
[Thread-0] 13 Jun 2016 17:33:26,037  INFO AgentDiagnosticsService - Starting up Agent Diagnostic Logger, setting up Thread dump frequency to [300] seconds
[Thread-0] 13 Jun 2016 17:33:26,038  INFO MemoryMonitor - BCI Rules to apply for Methods[null]
[Thread-0] 13 Jun 2016 17:33:26,038  INFO MethodRuleApplier - Finished applying new rule set for {}
[Thread-0] 13 Jun 2016 17:33:26,038  INFO MemoryMonitor - Clearing all current objects from methods being tracked {}
[Thread-0] 13 Jun 2016 17:33:26,038  INFO MemoryMonitor - BCI Rules to apply for Classes[null]
[Thread-0] 13 Jun 2016 17:33:26,038  INFO ClassRuleApplier - Finished applying new rule set for []
[Thread-0] 13 Jun 2016 17:33:26,038  INFO MemoryMonitor - Updated object names to log []
[Thread-0] 13 Jun 2016 17:33:26,038  INFO MemoryMonitor - Memory Monitor started with enabled[false], interval[10]
[Thread-0] 13 Jun 2016 17:33:26,038  INFO MethodRuleApplier - Finished applying new rule set for {}
[Thread-0] 13 Jun 2016 17:33:26,038  INFO LifeCycleManager - Started service [AgentDiagnosticsService]
[Thread-0] 13 Jun 2016 17:33:26,038  INFO XMLConfigManager - Agent will poll for new configuration from controller every [60] seconds
[Thread-0] 13 Jun 2016 17:33:26,050  INFO TransactionMonitoringService - Config Channel not initialized, will use default transaction config to apply BCI rules
[Thread-0] 13 Jun 2016 17:33:26,050  INFO TransactionMonitoringService - Reading transaction config file from the controller.
[Thread-0] 13 Jun 2016 17:33:26,057  INFO TransactionMonitoringService - Parsed Transaction definitions successfully from [/home/swfcfe/Services/instrumentationconsole/BookStore/ver4.1.7.1/conf/BookStore-dsibss-10010/transactions.xml]
[Thread-0] 13 Jun 2016 17:33:26,163  INFO ServletRuleApplier - Binding class com.singularity.ee.agent.appagent.services.transactionmonitor.scala.g
[Thread-0] 13 Jun 2016 17:33:26,165  INFO ServletRuleApplier - Binding class com.singularity.ee.agent.appagent.services.transactionmonitor.scala.c
[Thread-0] 13 Jun 2016 17:33:26,165  INFO ServletRuleApplier - Binding class com.singularity.ee.agent.appagent.services.transactionmonitor.scala.r
[Thread-0] 13 Jun 2016 17:33:26,175  INFO ServletRuleApplier - Binding class com.singularity.ee.agent.appagent.services.transactionmonitor.broker.webmethods.b
[Thread-0] 13 Jun 2016 17:33:26,175  INFO ServletRuleApplier - Binding class com.singularity.ee.agent.appagent.services.transactionmonitor.broker.webmethods.a
[Thread-0] 13 Jun 2016 17:33:26,176  INFO ServletRuleApplier - Binding class com.singularity.ee.agent.appagent.services.transactionmonitor.yb
[Thread-0] 13 Jun 2016 17:33:26,194  INFO ServletEntryPointDelegate - Servlet Monitoring enabled=true
[Thread-0] 13 Jun 2016 17:33:26,194  INFO ServletRuleApplier - Servlet entry point monitoring = true, service end point config = false
[Thread-0] 13 Jun 2016 17:33:26,199  INFO ServletRuleApplier - Adding SPRING MVC dispatcher rules
[Thread-0] 13 Jun 2016 17:33:26,199  INFO ServletRuleApplier - Adding SPRING MVC dispatcher super class rules
[Thread-0] 13 Jun 2016 17:33:26,201  INFO ServletRuleApplier - Applying Mule HTTP Receiver rules
[Thread-0] 13 Jun 2016 17:33:26,204  INFO ServletRuleApplier - Applying URI Capture rules
[Thread-0] 13 Jun 2016 17:33:26,205  INFO ServletRuleApplier - Capturing HttpServletResponse.setStatus() calls
[Thread-0] 13 Jun 2016 17:33:26,219  INFO ServletRuleApplier - Applying rules: Scala fork-join rules
[Thread-0] 13 Jun 2016 17:33:26,219  INFO ServletRuleApplier - Applying rules: Spray.io rules
[Thread-0] 13 Jun 2016 17:33:26,223  INFO WebMethodsRuleApplier - Applying Web Methods HTTP Receiver rules
[Thread-0] 13 Jun 2016 17:33:26,223  INFO ServletRuleApplier - Applying rules: Jolt Exit Point Rules
[Thread-0] 13 Jun 2016 17:33:26,223  INFO ServletRuleApplier - Applying rules: WebMethods Message Broker rules
[Thread-0] 13 Jun 2016 17:33:26,223  INFO WebObjectsRuleApplier - Applying WebObject rules
[Thread-0] 13 Jun 2016 17:33:26,235  INFO SpringIntegrationRuleApplier - Applying Spring Integration Rules
[Thread-0] 13 Jun 2016 17:33:26,236  INFO SpringIntegrationRuleApplier - spring-integration-receive-marker-classes = null
[Thread-0] 13 Jun 2016 17:33:26,236  INFO SpringIntegrationRuleApplier - Apply Spring Integration Receive Enclosing Marker Rules
[Thread-0] 13 Jun 2016 17:33:26,238  INFO EJBEntryPointDelegate - Applying RMI Rules
[Thread-0] 13 Jun 2016 17:33:26,239  INFO RMIRuleApplier - Applying JBoss Remoting Rules
[Thread-0] 13 Jun 2016 17:33:26,245  INFO RMIRuleApplier - Applying Websphere RMI-IIOP Rules
[Thread-0] 13 Jun 2016 17:33:26,251  INFO RMIRuleApplier - Applying JRMP RMI Rules
[Thread-0] 13 Jun 2016 17:33:26,256  INFO POJORuleApplier - POJO Monitoring is Enabled, applying rule sets. # of rules [3]
[Thread-0] 13 Jun 2016 17:33:26,256  INFO POJORuleApplier - [CustomMatchPointDefinition{businessTransactionName='GWT', matchPointRule=POJOMatchRule{matchClassType=MATCHES_CLASS, classMatch=SM{ex_type=EQUALS, ex_pattern='com.google.gwt.user.server.rpc.RPC', type=EQUALS, pattern='com.google.gwt.user.server.rpc.RPC'}, methodMatch=[SM{ex_type=EQUALS, ex_pattern='invokeAndEncodeResponse', type=EQUALS, pattern='invokeAndEncodeResponse'}],, splitOperationType=0, splitOperation='null', excludes=null, backgroundTask=false, displayName='GWT', splitConfig=[com.singularity.ee.controller.api.dto.transactionmonitor.transactiondefinition.pojo.SplitConfig@1bfef486],[com.singularity.ee.controller.api.dto.transactionmonitor.transactiondefinition.pojo.SplitConfig@8b4eb664],, hashCode=null}, entryPointType=POJO, background=false, enabled=false, attachedEntity=null, agentType=APP_AGENT, matchRuleString='null'}, CustomMatchPointDefinition{businessTransactionName='CometD', matchPointRule=POJOMatchRule{matchClassType=MATCHES_CLASS, classMatch=SM{ex_type=EQUALS, ex_pattern='org.cometd.server.BayeuxServerImpl', type=EQUALS, pattern='org.cometd.server.BayeuxServerImpl'}, methodMatch=[SM{ex_type=EQUALS, ex_pattern='doPublish', type=EQUALS, pattern='doPublish'}],, splitOperationType=0, splitOperation='null', excludes=null, backgroundTask=false, displayName='CometD', splitConfig=[com.singularity.ee.controller.api.dto.transactionmonitor.transactiondefinition.pojo.SplitConfig@3c80c545],, hashCode=null}, entryPointType=POJO, background=false, enabled=false, attachedEntity=null, agentType=APP_AGENT, matchRuleString='null'}, CustomMatchPointDefinition{businessTransactionName='Portlet', matchPointRule=POJOMatchRule{matchClassType=INHERITS_FROM_CLASS, classMatch=SM{ex_type=EQUALS, ex_pattern='javax.portlet.GenericPortlet', type=EQUALS, pattern='javax.portlet.GenericPortlet'}, methodMatch=[SM{ex_type=EQUALS, ex_pattern='doView', type=EQUALS, pattern='doView'}],, splitOperationType=0, splitOperation='null', excludes=null, backgroundTask=false, displayName='Portlet', splitConfig=[com.singularity.ee.controller.api.dto.transactionmonitor.transactiondefinition.pojo.SplitConfig@77847bee],, hashCode=null}, entryPointType=POJO, background=false, enabled=false, attachedEntity=null, agentType=APP_AGENT, matchRuleString='null'}]
[Thread-0] 13 Jun 2016 17:33:26,259  INFO JMSEntryPointDelegate - JMS monitoring is enabled
[Thread-0] 13 Jun 2016 17:33:26,261  INFO JMSEntryPointDelegate - Adding MDB Annotation onMessage rule 
[Thread-0] 13 Jun 2016 17:33:26,261  INFO JMSEntryPointDelegate - Adding Spring Integration MDB rule 
[Thread-0] 13 Jun 2016 17:33:26,312  INFO jrubyJRubyRuleApplier - Binding class com.singularity.ee.agent.appagent.services.transactionmonitor.http.j
[Thread-0] 13 Jun 2016 17:33:26,313  INFO HTTPExitPointDelegate - Binding class com.singularity.ee.agent.appagent.services.transactionmonitor.common.l
[Thread-0] 13 Jun 2016 17:33:26,313  INFO HTTPExitPointDelegate - Binding class com.singularity.ee.agent.appagent.services.transactionmonitor.common.d
[Thread-0] 13 Jun 2016 17:33:26,313  INFO HTTPExitPointDelegate - Applying rules: Ning async http client rules
[Thread-0] 13 Jun 2016 17:33:26,317  INFO jrubyJRubyRuleApplier - Applying rules: JRuby Httparty Rules
[Thread-0] 13 Jun 2016 17:33:26,320  INFO MQExitPointDelegate - MQ put/get rules registered
[Thread-0] 13 Jun 2016 17:33:26,429  INFO JMSExitPointDelegate - Applying Amazon SQS Rules
[Thread-0] 13 Jun 2016 17:33:26,432  INFO sqsSQSRuleApplier - Binding class com.singularity.ee.agent.appagent.services.transactionmonitor.y
[Thread-0] 13 Jun 2016 17:33:26,432  INFO sqsSQSRuleApplier - Binding class com.singularity.ee.agent.appagent.services.transactionmonitor.k
[Thread-0] 13 Jun 2016 17:33:26,432  INFO sqsSQSRuleApplier - Binding class com.singularity.ee.agent.appagent.services.transactionmonitor.z
[Thread-0] 13 Jun 2016 17:33:26,433  INFO sqsSQSRuleApplier - Applying rules: Amazon SQS Rules
[Thread-0] 13 Jun 2016 17:33:26,450  INFO BCIFixer - Scheduling BCIFixer at [900000] ms intervals.
[Thread-0] 13 Jun 2016 17:33:26,451  INFO DynamicRulesManager - Reading current dynamic rules from [/home/swfcfe/Services/instrumentationconsole/BookStore/ver4.1.7.1/conf/BookStore-dsibss-10010/bcirules.xml]
[Thread-0] 13 Jun 2016 17:33:26,455  INFO ServletRuleApplier - Adding servlet rule for org.springframework.web.servlet.FrameworkServlet
[Thread-0] 13 Jun 2016 17:33:26,461  INFO TransactionConfigChannel - Applying out of the box exit point rules
[Thread-0] 13 Jun 2016 17:33:26,472  INFO ExitPointRuleApplier - Adding rules for exit point type [[SAP, Mail, LDAP, DangaMemcache, Coherence, EHCache, MongoDB, Memcache]]
[Thread-0] 13 Jun 2016 17:33:26,472  INFO TransactionMonitoringService - Initializing thread delegate and resetting transaction delegate if needed. The current value of [use-new-async-correlation]=true
[Thread-0] 13 Jun 2016 17:33:26,481  INFO AsyncCorrelationRuleApplier - retention-config is null
[Thread-0] 13 Jun 2016 17:33:26,482  INFO AsyncCorrelationRuleApplier - retention-config is null
[Thread-0] 13 Jun 2016 17:33:26,482  INFO AsyncCorrelationRuleApplier - retention-config is null
[Thread-0] 13 Jun 2016 17:33:26,482  INFO AsyncCorrelationRuleApplier - retention-config is null
[Thread-0] 13 Jun 2016 17:33:26,483  INFO AsyncCorrelationRuleApplier - Adding thread correlation rule: Runtime [super class=SM{ex_type=EQUALS, ex_pattern='java.lang.Thread', type=EQUALS, pattern='java.lang.Thread'}],  Method [ method=SM{ex_type=EQUALS, ex_pattern='<init>', type=EQUALS, pattern='<init>'}] 
[Thread-0] 13 Jun 2016 17:33:26,484  INFO AsyncCorrelationRuleApplier - Adding thread correlation rule: Runtime [super class=SM{ex_type=EQUALS, ex_pattern='java.lang.Thread', type=EQUALS, pattern='java.lang.Thread'}],  Method [ method=SM{ex_type=EQUALS, ex_pattern='run', type=EQUALS, pattern='run'}] 
[Thread-0] 13 Jun 2016 17:33:26,484  INFO AsyncCorrelationRuleApplier - Adding thread correlation rule: Runtime [interface=SM{ex_type=EQUALS, ex_pattern='java.lang.Runnable', type=EQUALS, pattern='java.lang.Runnable'}],  Method [ method=SM{ex_type=EQUALS, ex_pattern='<init>', type=EQUALS, pattern='<init>'}] 
[Thread-0] 13 Jun 2016 17:33:26,484  INFO AsyncCorrelationRuleApplier - Adding thread correlation rule: Runtime [interface=SM{ex_type=EQUALS, ex_pattern='java.lang.Runnable', type=EQUALS, pattern='java.lang.Runnable'}],  Method [ method=SM{ex_type=EQUALS, ex_pattern='run', type=EQUALS, pattern='run'}] 
[Thread-0] 13 Jun 2016 17:33:26,484  INFO AsyncCorrelationRuleApplier - Adding thread correlation rule: Runtime [interface=SM{ex_type=EQUALS, ex_pattern='java.util.concurrent.Callable', type=EQUALS, pattern='java.util.concurrent.Callable'}],  Method [ method=SM{ex_type=EQUALS, ex_pattern='<init>', type=EQUALS, pattern='<init>'}] 
[Thread-0] 13 Jun 2016 17:33:26,485  INFO AsyncCorrelationRuleApplier - Adding thread correlation rule: Runtime [interface=SM{ex_type=EQUALS, ex_pattern='java.util.concurrent.Callable', type=EQUALS, pattern='java.util.concurrent.Callable'}],  Method [ method=SM{ex_type=EQUALS, ex_pattern='call', type=EQUALS, pattern='call'}] 
[Thread-0] 13 Jun 2016 17:33:26,485  INFO AsyncCorrelationRuleApplier - Adding thread correlation rule: Runtime [ className=SM{ex_type=EQUALS, ex_pattern='org.jboss.netty.handler.execution.ChannelUpstreamEventRunnable', type=EQUALS, pattern='org.jboss.netty.handler.execution.ChannelUpstreamEventRunnable'}],  Method [ method=SM{ex_type=EQUALS, ex_pattern='<init>', type=EQUALS, pattern='<init>'}] 
[Thread-0] 13 Jun 2016 17:33:26,485  INFO AsyncCorrelationRuleApplier - Adding thread correlation rule: Runtime [ className=SM{ex_type=EQUALS, ex_pattern='org.jboss.netty.handler.execution.ChannelUpstreamEventRunnable', type=EQUALS, pattern='org.jboss.netty.handler.execution.ChannelUpstreamEventRunnable'}],  Method [ method=SM{ex_type=EQUALS, ex_pattern='doRun', type=EQUALS, pattern='doRun'}] 
[Thread-0] 13 Jun 2016 17:33:26,486  INFO AsyncCorrelationRuleApplier - Adding thread correlation rule: Runtime [ className=SM{ex_type=EQUALS, ex_pattern='com.tibco.pe.core.Job', type=EQUALS, pattern='com.tibco.pe.core.Job'}],  Method [ method=SM{ex_type=EQUALS, ex_pattern='<init>', type=EQUALS, pattern='<init>'}] 
[Thread-0] 13 Jun 2016 17:33:26,486  INFO AsyncCorrelationRuleApplier - Adding thread correlation rule: Runtime [ className=SM{ex_type=EQUALS, ex_pattern='com.tibco.pe.core.Job', type=EQUALS, pattern='com.tibco.pe.core.Job'}],  Method [ method=SM{ex_type=EQUALS, ex_pattern='k', type=EQUALS, pattern='k'}] 
[Thread-0] 13 Jun 2016 17:33:26,488  INFO TransactionMonitoringService - Initialized [NEW] threads delegate
[Thread-0] 13 Jun 2016 17:33:26,496  INFO AnnotationPropertyListenerManager - Will propagate value of property [enable-async-correlation-for] to method [public void com.singularity.ee.agent.appagent.services.transactionmonitor.common.pb.b(java.lang.String)] in class class com.singularity.ee.agent.appagent.services.transactionmonitor.common.pb 1
[Thread-0] 13 Jun 2016 17:33:26,841  INFO JavaAgent - Started AppDynamics Java Agent Successfully.
[AD Thread Pool-Global1] 13 Jun 2016 17:33:26,891  INFO BCIEngineService - Class java/util/logging/Logger is scheduled for re-transformation
[AD Thread Pool-Global1] 13 Jun 2016 17:33:26,898  INFO BCIEngineService - Class java/lang/ApplicationShutdownHooks is scheduled for re-transformation
[AD Thread Pool-Global1] 13 Jun 2016 17:33:27,378  INFO BCIEngineService - Class java/util/concurrent/ThreadPoolExecutor$Worker is scheduled for re-transformation
